<?xml version="1.0" encoding="UTF-8" standalone="no"?>
<!DOCTYPE svg PUBLIC "-//W3C//DTD SVG 1.1//EN"
                     "http://www.w3.org/Graphics/SVG/1.1/DTD/svg11.dtd">
<!-- packet.svg :: byte layout
     Copyright © 2019  Olaf Meeuwissen <paddy-hack@member.fsf.org>

     SPDX-License-Identifier: CC-BY-SA-4.0
  -->
<svg xmlns="http://www.w3.org/2000/svg"
     xmlns:xlink="http://www.w3.org/1999/xlink"
     viewBox="0 5 900 160">

  <defs>
    <rect id="byte" x="0" y="0" width="50" height="25"
	  fill="none" stroke-width="1"/>

    <g id="row">
      <use x=  "0" y="0" xlink:href="#byte"/>
      <use x= "50" y="0" xlink:href="#byte"/>
      <use x="100" y="0" xlink:href="#byte"/>
      <use x="150" y="0" xlink:href="#byte"/>
      <use x="200" y="0" xlink:href="#byte"/>
      <use x="250" y="0" xlink:href="#byte"/>
      <use x="300" y="0" xlink:href="#byte"/>
      <use x="350" y="0" xlink:href="#byte"/>
      <use x="400" y="0" xlink:href="#byte"/>
      <use x="450" y="0" xlink:href="#byte"/>
      <use x="500" y="0" xlink:href="#byte"/>
      <use x="550" y="0" xlink:href="#byte"/>
      <use x="600" y="0" xlink:href="#byte"/>
      <use x="650" y="0" xlink:href="#byte"/>
      <use x="700" y="0" xlink:href="#byte"/>
      <use x="750" y="0" xlink:href="#byte"/>
    </g>

    <line id="lmark" x1="0" y1="0" x2= "3" y2="-15"
	  fill="none" stroke-width="2" stroke-linecap="round"/>
    <line id="rmark" x1="0" y1="0" x2="-3" y2="-15"
	  fill="none" stroke-width="2" stroke-linecap="round"/>
  </defs>

  <g font-family="helvetica, sans-serif" font-size="12"
     text-anchor="middle">
    <text x= "75" y="25">marker</text>
    <text x="125" y="25">offset</text>
    <text x="175" y="25">type</text>
    <text x="225" y="25">size</text>
    <text x="300" y="25">index</text>
    <text x="400" y="25">CRC-1</text>
    <text x="200" y="155">CRC-2</text>
    <text x="550" y="155">padding</text>
    <text x="860" y="75" transform="rotate(90 860 75)">payload</text>
  </g>

  <use  x= "50" y= "35" xlink:href="#lmark" stroke="red"/>
  <use  x="100" y= "35" xlink:href="#rmark" stroke="red"/>
  <use  x="100" y= "35" xlink:href="#lmark" stroke="red"/>
  <use  x="150" y= "35" xlink:href="#rmark" stroke="red"/>
  <use  x="150" y= "35" xlink:href="#lmark" stroke="red"/>
  <use  x="200" y= "35" xlink:href="#rmark" stroke="red"/>
  <use  x="200" y= "35" xlink:href="#lmark" stroke="red"/>
  <use  x="250" y= "35" xlink:href="#rmark" stroke="red"/>
  <use  x="250" y= "35" xlink:href="#lmark" stroke="red"/>
  <use  x="350" y= "35" xlink:href="#rmark" stroke="red"/>
  <use  x="350" y= "35" xlink:href="#lmark" stroke="red"/>
  <use  x="450" y= "35" xlink:href="#rmark" stroke="red"/>

  <rect x="250" y="110" width="600" height="25" fill="rgb(75%,75%,75%)"
	stroke="none"/>
  <use  x="253" y="150" xlink:href="#rmark" stroke="rgb(75%,75%,75%)"/>
  <use  x="847" y="150" xlink:href="#lmark" stroke="rgb(75%,75%,75%)"/>

  <use  x= "50" y= "35" xlink:href="#row" stroke="black"/>
  <use  x= "50" y= "60" xlink:href="#row" stroke="black"/>
  <use  x= "50" y= "85" xlink:href="#row" stroke="black"/>
  <use  x= "50" y="110" xlink:href="#row" stroke="black"/>
  <rect x= "50" y= "35" width="400" height="25" fill="none"
	stroke="red" stroke-width="2"/>
  <rect x="150" y="110" width="100" height="25" fill="none"
	stroke="red" stroke-width="2"/>

  <use  x="153" y="150" xlink:href="#rmark" stroke="red"/>
  <use  x="247" y="150" xlink:href="#lmark" stroke="red"/>

</svg>
